<mxfile host="Electron" modified="2023-07-23T12:01:59.838Z" agent="Mozilla/5.0 (X11; Linux x86_64) AppleWebKit/537.36 (KHTML, like Gecko) draw.io/21.1.2 Chrome/106.0.5249.199 Electron/21.4.3 Safari/537.36" etag="y9_hx5d8W53sgBQW8use" version="21.1.2" type="device">
  <diagram name="Stránka-1" id="UDVHSQA_93irqa_7FrW6">
    <mxGraphModel dx="880" dy="542" grid="1" gridSize="10" guides="1" tooltips="1" connect="1" arrows="1" fold="1" page="1" pageScale="1" pageWidth="827" pageHeight="1169" math="0" shadow="0">
      <root>
        <mxCell id="0" />
        <mxCell id="1" parent="0" />
        <mxCell id="D548s1Av6_sfE0cmjOG5-3" style="edgeStyle=orthogonalEdgeStyle;rounded=0;orthogonalLoop=1;jettySize=auto;html=1;exitX=1;exitY=0.5;exitDx=0;exitDy=0;strokeWidth=2;" parent="1" source="D548s1Av6_sfE0cmjOG5-1" target="D548s1Av6_sfE0cmjOG5-2" edge="1">
          <mxGeometry relative="1" as="geometry" />
        </mxCell>
        <mxCell id="D548s1Av6_sfE0cmjOG5-11" value="DATA message" style="edgeLabel;html=1;align=center;verticalAlign=middle;resizable=0;points=[];" parent="D548s1Av6_sfE0cmjOG5-3" vertex="1" connectable="0">
          <mxGeometry x="-0.2169" relative="1" as="geometry">
            <mxPoint x="12" y="-10" as="offset" />
          </mxGeometry>
        </mxCell>
        <mxCell id="D548s1Av6_sfE0cmjOG5-7" style="edgeStyle=orthogonalEdgeStyle;rounded=0;orthogonalLoop=1;jettySize=auto;html=1;exitX=0.5;exitY=0;exitDx=0;exitDy=0;entryX=0.173;entryY=1.011;entryDx=0;entryDy=0;entryPerimeter=0;startArrow=classic;startFill=1;endArrow=none;endFill=0;" parent="1" source="D548s1Av6_sfE0cmjOG5-1" target="D548s1Av6_sfE0cmjOG5-5" edge="1">
          <mxGeometry relative="1" as="geometry" />
        </mxCell>
        <mxCell id="D548s1Av6_sfE0cmjOG5-8" style="edgeStyle=orthogonalEdgeStyle;rounded=0;orthogonalLoop=1;jettySize=auto;html=1;exitX=0.5;exitY=1;exitDx=0;exitDy=0;entryX=0.172;entryY=-0.047;entryDx=0;entryDy=0;entryPerimeter=0;" parent="1" source="D548s1Av6_sfE0cmjOG5-1" target="D548s1Av6_sfE0cmjOG5-6" edge="1">
          <mxGeometry relative="1" as="geometry" />
        </mxCell>
        <mxCell id="D548s1Av6_sfE0cmjOG5-1" value="Sensor measures&lt;br&gt;a value and sends it&lt;br&gt;via a DATA message" style="rounded=0;whiteSpace=wrap;html=1;" parent="1" vertex="1">
          <mxGeometry x="270" y="260" width="120" height="60" as="geometry" />
        </mxCell>
        <mxCell id="D548s1Av6_sfE0cmjOG5-9" style="edgeStyle=orthogonalEdgeStyle;rounded=0;orthogonalLoop=1;jettySize=auto;html=1;exitX=0.5;exitY=1;exitDx=0;exitDy=0;entryX=0.827;entryY=-0.024;entryDx=0;entryDy=0;entryPerimeter=0;" parent="1" source="D548s1Av6_sfE0cmjOG5-2" target="D548s1Av6_sfE0cmjOG5-6" edge="1">
          <mxGeometry relative="1" as="geometry" />
        </mxCell>
        <mxCell id="D548s1Av6_sfE0cmjOG5-10" style="edgeStyle=orthogonalEdgeStyle;rounded=0;orthogonalLoop=1;jettySize=auto;html=1;exitX=0.5;exitY=0;exitDx=0;exitDy=0;entryX=0.83;entryY=1.022;entryDx=0;entryDy=0;entryPerimeter=0;startArrow=classic;startFill=1;endArrow=none;endFill=0;" parent="1" source="D548s1Av6_sfE0cmjOG5-2" target="D548s1Av6_sfE0cmjOG5-5" edge="1">
          <mxGeometry relative="1" as="geometry" />
        </mxCell>
        <mxCell id="D548s1Av6_sfE0cmjOG5-2" value="Brick receives&lt;br&gt;the DATA message" style="rounded=0;whiteSpace=wrap;html=1;" parent="1" vertex="1">
          <mxGeometry x="500" y="260" width="120" height="60" as="geometry" />
        </mxCell>
        <mxCell id="D548s1Av6_sfE0cmjOG5-5" value="data phase" style="rounded=0;whiteSpace=wrap;html=1;fontStyle=2;fillColor=#f5f5f5;fontColor=#333333;strokeColor=#666666;" parent="1" vertex="1">
          <mxGeometry x="270" y="210" width="350" height="30" as="geometry" />
        </mxCell>
        <mxCell id="D548s1Av6_sfE0cmjOG5-6" value="data phase" style="rounded=0;whiteSpace=wrap;html=1;fontStyle=2;fillColor=#f5f5f5;fontColor=#333333;strokeColor=#666666;" parent="1" vertex="1">
          <mxGeometry x="270" y="340" width="350" height="30" as="geometry" />
        </mxCell>
      </root>
    </mxGraphModel>
  </diagram>
</mxfile>
