<mxfile host="Electron" modified="2023-07-23T12:10:11.219Z" agent="Mozilla/5.0 (X11; Linux x86_64) AppleWebKit/537.36 (KHTML, like Gecko) draw.io/21.1.2 Chrome/106.0.5249.199 Electron/21.4.3 Safari/537.36" etag="hk_5l4w3oo5C8IBxnnHG" version="21.1.2" type="device">
  <diagram name="Stránka-1" id="RqqnQZ9RJ8Pp2nWd00BT">
    <mxGraphModel dx="880" dy="542" grid="1" gridSize="10" guides="1" tooltips="1" connect="1" arrows="1" fold="1" page="1" pageScale="1" pageWidth="827" pageHeight="1169" math="0" shadow="0">
      <root>
        <mxCell id="0" />
        <mxCell id="1" parent="0" />
        <mxCell id="nuakIjf01tkN-J1Zbtng-1" style="edgeStyle=orthogonalEdgeStyle;rounded=0;orthogonalLoop=1;jettySize=auto;html=1;exitX=0.5;exitY=1;exitDx=0;exitDy=0;entryX=0.5;entryY=0;entryDx=0;entryDy=0;" parent="1" target="nuakIjf01tkN-J1Zbtng-6" edge="1">
          <mxGeometry relative="1" as="geometry">
            <mxPoint x="270" y="280" as="sourcePoint" />
          </mxGeometry>
        </mxCell>
        <mxCell id="nuakIjf01tkN-J1Zbtng-2" value="data phase" style="rounded=0;whiteSpace=wrap;html=1;fontStyle=2;fillColor=#f5f5f5;fontColor=#333333;strokeColor=#666666;" parent="1" vertex="1">
          <mxGeometry x="210" y="170" width="380" height="30" as="geometry" />
        </mxCell>
        <mxCell id="nuakIjf01tkN-J1Zbtng-3" style="edgeStyle=orthogonalEdgeStyle;rounded=0;orthogonalLoop=1;jettySize=auto;html=1;exitX=0.5;exitY=1;exitDx=0;exitDy=0;entryX=0.5;entryY=0;entryDx=0;entryDy=0;" parent="1" source="nuakIjf01tkN-J1Zbtng-4" target="nuakIjf01tkN-J1Zbtng-10" edge="1">
          <mxGeometry relative="1" as="geometry" />
        </mxCell>
        <mxCell id="nuakIjf01tkN-J1Zbtng-4" value="User requests&lt;br&gt;a different&lt;br&gt;sensor mode" style="rounded=0;whiteSpace=wrap;html=1;fontStyle=2" parent="1" vertex="1">
          <mxGeometry x="470" y="220" width="120" height="60" as="geometry" />
        </mxCell>
        <mxCell id="nuakIjf01tkN-J1Zbtng-5" style="edgeStyle=orthogonalEdgeStyle;rounded=0;orthogonalLoop=1;jettySize=auto;html=1;exitX=0.5;exitY=1;exitDx=0;exitDy=0;entryX=0.5;entryY=0;entryDx=0;entryDy=0;" parent="1" source="nuakIjf01tkN-J1Zbtng-6" target="nuakIjf01tkN-J1Zbtng-20" edge="1">
          <mxGeometry relative="1" as="geometry" />
        </mxCell>
        <mxCell id="nuakIjf01tkN-J1Zbtng-6" value="Sensor receives&lt;br&gt;a CMD SELECT" style="rounded=0;whiteSpace=wrap;html=1;" parent="1" vertex="1">
          <mxGeometry x="210" y="300" width="120" height="60" as="geometry" />
        </mxCell>
        <mxCell id="nuakIjf01tkN-J1Zbtng-7" style="edgeStyle=orthogonalEdgeStyle;rounded=0;orthogonalLoop=1;jettySize=auto;html=1;exitX=0;exitY=0.5;exitDx=0;exitDy=0;entryX=1;entryY=0.5;entryDx=0;entryDy=0;strokeWidth=2;" parent="1" source="nuakIjf01tkN-J1Zbtng-10" target="nuakIjf01tkN-J1Zbtng-6" edge="1">
          <mxGeometry relative="1" as="geometry" />
        </mxCell>
        <mxCell id="nuakIjf01tkN-J1Zbtng-8" value="CMD SELECT message" style="edgeLabel;html=1;align=center;verticalAlign=middle;resizable=0;points=[];" parent="nuakIjf01tkN-J1Zbtng-7" vertex="1" connectable="0">
          <mxGeometry x="0.1786" y="1" relative="1" as="geometry">
            <mxPoint x="13" y="-11" as="offset" />
          </mxGeometry>
        </mxCell>
        <mxCell id="nuakIjf01tkN-J1Zbtng-27" style="edgeStyle=orthogonalEdgeStyle;rounded=0;orthogonalLoop=1;jettySize=auto;html=1;exitX=0.5;exitY=1;exitDx=0;exitDy=0;entryX=0.5;entryY=0;entryDx=0;entryDy=0;" parent="1" source="nuakIjf01tkN-J1Zbtng-10" target="nuakIjf01tkN-J1Zbtng-25" edge="1">
          <mxGeometry relative="1" as="geometry" />
        </mxCell>
        <mxCell id="nuakIjf01tkN-J1Zbtng-10" value="Brick sends a&lt;br&gt;request for&lt;br&gt;mode switch" style="rounded=0;whiteSpace=wrap;html=1;" parent="1" vertex="1">
          <mxGeometry x="470" y="300" width="120" height="60" as="geometry" />
        </mxCell>
        <mxCell id="nuakIjf01tkN-J1Zbtng-11" style="edgeStyle=orthogonalEdgeStyle;rounded=0;orthogonalLoop=1;jettySize=auto;html=1;exitX=1;exitY=0.5;exitDx=0;exitDy=0;entryX=0;entryY=0.5;entryDx=0;entryDy=0;strokeWidth=2;" parent="1" source="nuakIjf01tkN-J1Zbtng-14" target="nuakIjf01tkN-J1Zbtng-16" edge="1">
          <mxGeometry relative="1" as="geometry" />
        </mxCell>
        <mxCell id="nuakIjf01tkN-J1Zbtng-12" value="DATA message" style="edgeLabel;html=1;align=center;verticalAlign=middle;resizable=0;points=[];" parent="nuakIjf01tkN-J1Zbtng-11" vertex="1" connectable="0">
          <mxGeometry x="-0.131" y="-1" relative="1" as="geometry">
            <mxPoint x="9" y="-11" as="offset" />
          </mxGeometry>
        </mxCell>
        <mxCell id="nuakIjf01tkN-J1Zbtng-13" style="edgeStyle=orthogonalEdgeStyle;rounded=0;orthogonalLoop=1;jettySize=auto;html=1;exitX=0.5;exitY=1;exitDx=0;exitDy=0;entryX=0.158;entryY=-0.029;entryDx=0;entryDy=0;entryPerimeter=0;" parent="1" source="nuakIjf01tkN-J1Zbtng-14" target="nuakIjf01tkN-J1Zbtng-17" edge="1">
          <mxGeometry relative="1" as="geometry" />
        </mxCell>
        <mxCell id="nuakIjf01tkN-J1Zbtng-14" value="Sensor measures&lt;br style=&quot;border-color: var(--border-color);&quot;&gt;a value and&lt;br style=&quot;border-color: var(--border-color);&quot;&gt;sends a DATA msg" style="rounded=0;whiteSpace=wrap;html=1;" parent="1" vertex="1">
          <mxGeometry x="210" y="460" width="120" height="60" as="geometry" />
        </mxCell>
        <mxCell id="nuakIjf01tkN-J1Zbtng-15" style="edgeStyle=orthogonalEdgeStyle;rounded=0;orthogonalLoop=1;jettySize=auto;html=1;exitX=0.5;exitY=1;exitDx=0;exitDy=0;entryX=0.842;entryY=-0.033;entryDx=0;entryDy=0;entryPerimeter=0;" parent="1" source="nuakIjf01tkN-J1Zbtng-16" target="nuakIjf01tkN-J1Zbtng-17" edge="1">
          <mxGeometry relative="1" as="geometry">
            <mxPoint x="530" y="540" as="targetPoint" />
          </mxGeometry>
        </mxCell>
        <mxCell id="nuakIjf01tkN-J1Zbtng-16" value="Brick receives&lt;br&gt;a DATA message&lt;br&gt;for the correct mode" style="rounded=0;whiteSpace=wrap;html=1;" parent="1" vertex="1">
          <mxGeometry x="470" y="460" width="120" height="60" as="geometry" />
        </mxCell>
        <mxCell id="nuakIjf01tkN-J1Zbtng-17" value="data phase" style="rounded=0;whiteSpace=wrap;html=1;fontStyle=2;fillColor=#f5f5f5;fontColor=#333333;strokeColor=#666666;" parent="1" vertex="1">
          <mxGeometry x="210" y="540" width="380" height="30" as="geometry" />
        </mxCell>
        <mxCell id="nuakIjf01tkN-J1Zbtng-18" style="edgeStyle=orthogonalEdgeStyle;rounded=0;orthogonalLoop=1;jettySize=auto;html=1;exitX=0.5;exitY=1;exitDx=0;exitDy=0;entryX=0.5;entryY=0;entryDx=0;entryDy=0;" parent="1" edge="1">
          <mxGeometry relative="1" as="geometry">
            <mxPoint x="529.88" y="200" as="sourcePoint" />
            <mxPoint x="529.88" y="220" as="targetPoint" />
          </mxGeometry>
        </mxCell>
        <mxCell id="nuakIjf01tkN-J1Zbtng-19" style="edgeStyle=orthogonalEdgeStyle;rounded=0;orthogonalLoop=1;jettySize=auto;html=1;exitX=0.5;exitY=1;exitDx=0;exitDy=0;entryX=0.5;entryY=0;entryDx=0;entryDy=0;" parent="1" source="nuakIjf01tkN-J1Zbtng-20" target="nuakIjf01tkN-J1Zbtng-14" edge="1">
          <mxGeometry relative="1" as="geometry" />
        </mxCell>
        <mxCell id="nuakIjf01tkN-J1Zbtng-20" value="Sensor MCU&lt;br&gt;reconfigures&lt;br&gt;itself for the mode" style="rounded=0;whiteSpace=wrap;html=1;" parent="1" vertex="1">
          <mxGeometry x="210" y="380" width="120" height="60" as="geometry" />
        </mxCell>
        <mxCell id="nuakIjf01tkN-J1Zbtng-21" style="edgeStyle=orthogonalEdgeStyle;rounded=0;orthogonalLoop=1;jettySize=auto;html=1;exitX=0.157;exitY=0.995;exitDx=0;exitDy=0;entryX=0.5;entryY=0;entryDx=0;entryDy=0;exitPerimeter=0;" parent="1" source="nuakIjf01tkN-J1Zbtng-2" target="nuakIjf01tkN-J1Zbtng-6" edge="1">
          <mxGeometry relative="1" as="geometry">
            <mxPoint x="270" y="280" as="sourcePoint" />
          </mxGeometry>
        </mxCell>
        <mxCell id="nuakIjf01tkN-J1Zbtng-26" style="edgeStyle=orthogonalEdgeStyle;rounded=0;orthogonalLoop=1;jettySize=auto;html=1;exitX=0.5;exitY=1;exitDx=0;exitDy=0;entryX=0.5;entryY=0;entryDx=0;entryDy=0;" parent="1" source="nuakIjf01tkN-J1Zbtng-25" target="nuakIjf01tkN-J1Zbtng-16" edge="1">
          <mxGeometry relative="1" as="geometry" />
        </mxCell>
        <mxCell id="nuakIjf01tkN-J1Zbtng-25" value="Brick receives&lt;br&gt;a DATA message,&lt;br&gt;discards it (incorrect sensor mode)" style="rounded=0;whiteSpace=wrap;html=1;" parent="1" vertex="1">
          <mxGeometry x="470" y="380" width="120" height="60" as="geometry" />
        </mxCell>
        <mxCell id="nuakIjf01tkN-J1Zbtng-28" style="rounded=0;orthogonalLoop=1;jettySize=auto;html=1;entryX=0;entryY=0.5;entryDx=0;entryDy=0;strokeWidth=2;dashed=1;" parent="1" target="nuakIjf01tkN-J1Zbtng-25" edge="1">
          <mxGeometry relative="1" as="geometry">
            <mxPoint x="360" y="390" as="sourcePoint" />
            <mxPoint x="750" y="370" as="targetPoint" />
          </mxGeometry>
        </mxCell>
        <mxCell id="nuakIjf01tkN-J1Zbtng-29" value="DATA message&lt;br&gt;from before&lt;br&gt;mode switch" style="edgeLabel;html=1;align=center;verticalAlign=middle;resizable=0;points=[];labelBackgroundColor=none;" parent="nuakIjf01tkN-J1Zbtng-28" vertex="1" connectable="0">
          <mxGeometry x="-0.131" y="-1" relative="1" as="geometry">
            <mxPoint x="7" y="-25" as="offset" />
          </mxGeometry>
        </mxCell>
      </root>
    </mxGraphModel>
  </diagram>
</mxfile>
